{
  "development": {
    "username": "root",
    "password": "",
    "database": "si_hrd",
    "host": "127.0.0.1",
    "dialect": "mariadb",
    "define": {
      "timestamps": false
    },
    "dialectOptions": {
      "timezone": "Etc/GMT+7"
    }
  },
  "test": {
    "username": "root",
    "password": null,
    "database": "database_test",
    "host": "127.0.0.1",
    "dialect": "mysql",
    "operatorsAliases": false
  },
  "production": {
    "username": "rCpp9uvJpztw",
    "password": "nobfzd9wsfKsWNAdTvfxRiEU",
    "database": "si_hrd",
    "host": "10.0.0.211",
    "dialect": "mysql",
    "define": {
      "timestamps": false
    },
    "dialectOptions": {
      "timezone": "Etc/GMT+7"
    }
  }
}
